# Blender v2.80 (sub 74) OBJ File: 'Gate.blend'
# www.blender.org
mtllib Gate.mtl
o Cube
v 0.876300 0.342900 -0.101600
v 0.876300 -0.342900 -0.101600
v 0.876300 0.342900 0.101600
v 0.876300 -0.342900 0.101600
v -0.876300 0.342900 -0.101600
v -0.876300 -0.342900 -0.101600
v -0.876300 0.342900 0.101600
v -0.876300 -0.342900 0.101600
vt 0.000200 0.000200
vt 0.333134 0.000200
vt 0.333134 0.333134
vt 0.000200 0.333134
vt 0.333134 0.999800
vt 0.000200 0.999800
vt 0.000200 0.666866
vt 0.333134 0.666866
vt 0.666467 0.000200
vt 0.666467 0.333134
vt 0.333533 0.333134
vt 0.333533 0.000200
vt 0.333533 0.333533
vt 0.666467 0.333533
vt 0.666467 0.666467
vt 0.333533 0.666467
vt 0.999800 0.333134
vt 0.666866 0.333134
vt 0.666866 0.000200
vt 0.999800 0.000200
vt 0.333134 0.333533
vt 0.333134 0.666467
vt 0.000200 0.666467
vt 0.000200 0.333533
vn 0.0000 1.0000 0.0000
vn 0.0000 0.0000 1.0000
vn -1.0000 0.0000 0.0000
vn 0.0000 -1.0000 0.0000
vn 1.0000 0.0000 0.0000
vn 0.0000 0.0000 -1.0000
usemtl Material
s off
f 1/1/1 5/2/1 7/3/1 3/4/1
f 4/5/2 3/6/2 7/7/2 8/8/2
f 8/9/3 7/10/3 5/11/3 6/12/3
f 6/13/4 2/14/4 4/15/4 8/16/4
f 2/17/5 1/18/5 3/19/5 4/20/5
f 6/21/6 5/22/6 1/23/6 2/24/6
