ply
format ascii 1.0
comment Created by Blender 2.80 (sub 74) - www.blender.org, source file: 'Gate.blend'
element vertex 24
property float x
property float y
property float z
property float nx
property float ny
property float nz
property float s
property float t
element face 12
property list uchar uint vertex_indices
end_header
0.876300 0.101600 0.342900 0.000000 0.000000 1.000000 0.000200 0.000200
-0.876300 0.101600 0.342900 0.000000 0.000000 1.000000 0.333134 0.000200
-0.876300 -0.101600 0.342900 0.000000 0.000000 1.000000 0.333134 0.333134
0.876300 -0.101600 0.342900 0.000000 -0.000000 1.000000 0.000200 0.333134
0.876300 -0.101600 -0.342900 0.000000 -1.000000 0.000000 0.333134 0.999800
0.876300 -0.101600 0.342900 0.000000 -1.000000 0.000000 0.000200 0.999800
-0.876300 -0.101600 0.342900 0.000000 -1.000000 0.000000 0.000200 0.666866
-0.876300 -0.101600 -0.342900 0.000000 -1.000000 0.000000 0.333134 0.666866
-0.876300 -0.101600 -0.342900 -1.000000 -0.000000 -0.000000 0.666467 0.000200
-0.876300 -0.101600 0.342900 -1.000000 -0.000000 -0.000000 0.666467 0.333134
-0.876300 0.101600 0.342900 -1.000000 -0.000000 -0.000000 0.333533 0.333134
-0.876300 0.101600 -0.342900 -1.000000 -0.000000 0.000000 0.333533 0.000200
-0.876300 0.101600 -0.342900 0.000000 0.000000 -1.000000 0.333533 0.333533
0.876300 0.101600 -0.342900 0.000000 0.000000 -1.000000 0.666467 0.333533
0.876300 -0.101600 -0.342900 0.000000 0.000000 -1.000000 0.666467 0.666467
-0.876300 -0.101600 -0.342900 0.000000 0.000000 -1.000000 0.333533 0.666467
0.876300 0.101600 -0.342900 1.000000 -0.000000 0.000000 0.999800 0.333134
0.876300 0.101600 0.342900 1.000000 -0.000000 0.000000 0.666866 0.333134
0.876300 -0.101600 0.342900 1.000000 -0.000000 0.000000 0.666866 0.000200
0.876300 -0.101600 -0.342900 1.000000 -0.000000 0.000000 0.999800 0.000200
-0.876300 0.101600 -0.342900 0.000000 1.000000 0.000000 0.333134 0.333533
-0.876300 0.101600 0.342900 0.000000 1.000000 0.000000 0.333134 0.666467
0.876300 0.101600 0.342900 0.000000 1.000000 0.000000 0.000200 0.666467
0.876300 0.101600 -0.342900 0.000000 1.000000 -0.000000 0.000200 0.333533
3 0 1 2
3 0 2 3
3 4 5 6
3 4 6 7
3 8 9 10
3 8 10 11
3 12 13 14
3 12 14 15
3 16 17 18
3 16 18 19
3 20 21 22
3 20 22 23
